<svg xmlns="http://www.w3.org/2000/svg" width="10" height="12.857" viewBox="0 0 10 12.857">
  <path id="ic_delete_24px" d="M5.714,14.429a1.433,1.433,0,0,0,1.429,1.429h5.714a1.433,1.433,0,0,0,1.429-1.429V5.857H5.714ZM15,3.714H12.5L11.786,3H8.214L7.5,3.714H5V5.143H15Z" transform="translate(-5 -3)" fill="#dce1de"/>
</svg>
