<svg xmlns="http://www.w3.org/2000/svg" width="12" height="12" viewBox="0 0 12 12">
  <g id="Group_12" data-name="Group 12" transform="translate(-330 -253)">
    <path id="ic_mode_edit_24px" d="M3,12.5V15H5.5l7.372-7.372-2.5-2.5ZM14.805,5.692a.664.664,0,0,0,0-.94l-1.56-1.56a.664.664,0,0,0-.94,0l-1.22,1.22,2.5,2.5,1.22-1.22Z" transform="translate(327 250.002)" fill="#dce1de"/>
  </g>
</svg>
