<svg xmlns="http://www.w3.org/2000/svg" width="21.339" height="42.678" viewBox="0 0 21.339 42.678">
  <path id="Facebook" d="M14.188,42.678H4.728V22.525H0V14.759H4.728V10.1C4.728,3.769,7.4,0,14.981,0h6.313V7.766H17.349c-2.953,0-3.149,1.084-3.149,3.11l-.012,3.883h7.151L20.5,22.525H14.188V42.678Z" fill="#dce1de"/>
</svg>
