<svg xmlns="http://www.w3.org/2000/svg" width="54.298" height="16" viewBox="0 0 54.298 16">
  <g id="Group_83" data-name="Group 83" transform="translate(-116.702 -623)">
    <path id="ic_person_outline_24px" d="M12,5.9A2.1,2.1,0,1,1,9.9,8,2.1,2.1,0,0,1,12,5.9m0,9c2.97,0,6.1,1.46,6.1,2.1v1.1H5.9V17c0-.64,3.13-2.1,6.1-2.1M12,4a4,4,0,1,0,4,4A4,4,0,0,0,12,4Zm0,9c-2.67,0-8,1.34-8,4v3H20V17C20,14.34,14.67,13,12,13Z" transform="translate(112.702 619)" fill="#dce1de"/>
    <path id="ic_arrow_back_24px" d="M12.757,8.812H6.1L9.156,4.969,8.378,4,4,9.5,8.378,15l.772-.969L6.1,10.187h6.661Z" transform="translate(133.643 620.001)" fill="#dce1de"/>
    <g id="Rectangle_8" data-name="Rectangle 8" transform="translate(152 624)" fill="none" stroke="#dce1de" stroke-linejoin="round" stroke-width="1">
      <rect width="19" height="13" stroke="none"/>
      <rect x="0.5" y="0.5" width="18" height="12" fill="none"/>
    </g>
    <text id="_" data-name="$" transform="translate(159 634)" fill="#216869" font-size="9" font-family="SegoeUI, Segoe UI"><tspan x="0" y="0">$</tspan></text>
  </g>
</svg>
