<svg xmlns="http://www.w3.org/2000/svg" width="36.129" height="36.129" viewBox="0 0 36.129 36.129">
  <path id="Linkedin" d="M28.65,36.129V24.4c0-2.8-.042-6.4-3.887-6.4-3.9,0-4.484,3.055-4.484,6.194v11.94H12.8V12h7.159V15.3h.1a7.866,7.866,0,0,1,7.088-3.891c7.577,0,8.984,4.994,8.984,11.494V36.129Zm-20.573,0H.585V12H8.078V36.127h0ZM12.786,12H12.8ZM0,4.352A4.346,4.346,0,1,1,4.346,8.7,4.354,4.354,0,0,1,0,4.352Z" fill="#dce1de"/>
</svg>
