<svg xmlns="http://www.w3.org/2000/svg" width="50.751" height="16" viewBox="0 0 50.751 16">
  <g id="Group_85" data-name="Group 85" transform="translate(-292 -622)">
    <path id="ic_code_24px" d="M7.538,13.934,4.1,10.491,7.538,7.048,6.491,6,2,10.491l4.491,4.491Zm3.892,0,3.443-3.443L11.43,7.048,12.478,6l4.491,4.491-4.491,4.491L11.43,13.934Z" transform="translate(308 619.848)" fill="#dce1de"/>
    <path id="ic_assignment_24px" d="M12.557,2.6h-2.5A1.923,1.923,0,0,0,8.376,1,1.923,1.923,0,0,0,6.691,2.6h-2.5C3.538,2.6,3,3.32,3,4.2V15.4c0,.88.538,1.6,1.195,1.6h8.362c.657,0,1.195-.72,1.195-1.6V4.2C13.751,3.32,13.214,2.6,12.557,2.6Zm-4.181,0c.329,0,.6.36.6.8s-.269.8-.6.8-.6-.36-.6-.8S8.047,2.6,8.376,2.6ZM9.57,13.8H5.389V12.2H9.57Zm1.792-3.2H5.389V9h5.973Zm0-3.2H5.389V5.8h5.973Z" transform="translate(289 621)" fill="#dce1de"/>
    <path id="ic_assignment_24px-2" data-name="ic_assignment_24px" d="M12.557,2.6h-2.5A1.923,1.923,0,0,0,8.376,1,1.923,1.923,0,0,0,6.691,2.6h-2.5C3.538,2.6,3,3.32,3,4.2V15.4c0,.88.538,1.6,1.195,1.6h8.362c.657,0,1.195-.72,1.195-1.6V4.2C13.751,3.32,13.214,2.6,12.557,2.6Zm-4.181,0c.329,0,.6.36.6.8s-.269.8-.6.8-.6-.36-.6-.8S8.047,2.6,8.376,2.6ZM9.57,13.8H5.389V12.2H9.57Zm1.792-3.2H5.389V9h5.973Zm0-3.2H5.389V5.8h5.973Z" transform="translate(329 621)" fill="#dce1de"/>
  </g>
</svg>
